DoubleML-application
…
# A tibble: 4 x 13
  Cluster famincAssigned   pub  male black married foreign veteran
    <int>          <dbl> <dbl> <dbl> <dbl>   <dbl>   <dbl>   <dbl>
1       1          1.69  0.214 0.433 0.230   0.507   0.246   0.196
2       2         -0.214 0.140 0.443 0.117   0.554   0.130   0.221
3       3          0.572 0.142 0.436 0.109   0.542   0.249   0.182
4       4         -1.01  0.164 0.438 0.169   0.515   0.103   0.214
#  with 5 more variables: nchildren <dbl>, unemployed <dbl>,
#   phone <dbl>, is_largefmly <dbl>, health <dbl>

na.omit(ncps_statefip) %>%
  mutate(Cluster = k2$cluster) %>%
  group_by(Cluster)

# A tibble: 45 x 13
# Groups:   Cluster [4]
   famincAssigned[,1]    pub  male  black married foreign veteran
                <dbl>  <dbl> <dbl>  <dbl>   <dbl>   <dbl>   <dbl>
 1             -1.17  0.0606 0.439 0.350    0.564  0.0202   0.204
 2             -0.107 0.0872 0.464 0.0431   0.576  0.225    0.218
 3             -1.97  0.172  0.412 0.339    0.396  0.0395   0.236
 4              0.670 0.139  0.442 0.0948   0.526  0.465    0.164
 5              0.714 0.126  0.452 0.0477   0.552  0.123    0.233
 6              2.09  0.256  0.453 0.134    0.494  0.253    0.176
 7             -0.190 0.226  0.437 0.211    0.554  0.116    0.221
 8              1.29  0.286  0.394 0.751    0.309  0.135    0.156
 9             -0.789 0.152  0.443 0.128    0.535  0.418    0.184
10             -0.169 0.165  0.436 0.286    0.624  0.183    0.179
#  with 35 more rows, and 6 more variables: nchildren <dbl>,
#   unemployed <dbl>, phone <dbl>, is_largefmly <dbl>, health <dbl>,
#   Cluster <int>
…
# A tibble: 4 x 13
  Cluster famincAssigned   pub  male black married foreign veteran
    <int>          <dbl> <dbl> <dbl> <dbl>   <dbl>   <dbl>   <dbl>
1       1          2.36  0.116 0.480 0.213   0.486  0.195   0.0867
2       2         -0.971 0.114 0.492 0.173   0.439  0.0988  0.146 
3       3          0.919 0.133 0.458 0.201   0.466  0.293   0.0912
4       4         -0.211 0.143 0.456 0.254   0.422  0.134   0.105 
#  with 5 more variables: nchildren <dbl>, unemployed <dbl>,
#   phone <dbl>, is_largefmly <dbl>, health <dbl>

# A tibble: 45 x 13
# Groups:   Cluster [4]
   famincAssigned[,1]    pub  male  black married foreign veteran
                <dbl>  <dbl> <dbl>  <dbl>   <dbl>   <dbl>   <dbl>
 1            -0.785  0.0853 0.524 0.441    0.441  0.0381  0.131 
 2            -0.832  0.0807 0.500 0.0735   0.454  0.253   0.136 
 3            -1.23   0.121  0.530 0.477    0.409  0.0152  0.277 
 4             0.666  0.0945 0.474 0.123    0.483  0.464   0.0784
 5             0.0122 0.159  0.462 0.0642   0.455  0.170   0.0895
 6             2.42   0.103  0.52  0.177    0.486  0.287   0.0651
 7            -0.237  0.171  0.484 0.326    0.421  0.122   0.116 
 8             0.148  0.304  0.421 0.777    0.249  0.146   0.0950
 9            -0.396  0.0724 0.475 0.223    0.431  0.366   0.133 
10             0.548  0.0714 0.432 0.386    0.510  0.255   0.0654
#  with 35 more rows, and 6 more variables: nchildren <dbl>,
#   unemployed <dbl>, phone <dbl>, is_largefmly <dbl>, health <dbl>,
#   Cluster <int>
…
