Econ 712: Elements of Rmarkdown and R
…
If you want to filter on a categorical variable, you can use the %in% operator to select specific categories. Here is the code to filter only the fish and vegetable variables:

food %>%
  filter(food_group %in% c("fish", "vegetable"))

# A tibble: 30 x 17
   item       food_group calories total_fat sat_fat cholesterol sodium
   <chr>      <chr>         <dbl>     <dbl>   <dbl>       <dbl>  <dbl>
 1 Asparagus  vegetable        20       0.1   0.046           0      2
 2 String Be vegetable        31       0.1   0.026           0      6
 3 Bell Pepp vegetable        26       0     0.059           0      2
 4 Crab       fish             87       1     0.222          78    293
 5 Broccoli   vegetable        34       0.3   0.039           0     33
 6 Cabbage    vegetable        24       0.1   0.016           0     18
 7 Carrot     vegetable        41       0.2   0.037           0     69
 8 Catfish    fish            240      14.5   3.25           69    398
 9 Cauliflow vegetable        25       0     0.032           0     30
10 Celery     vegetable        14       0.1   0.043           0     80
#  with 20 more rows, and 10 more variables: carbs <dbl>,
#   fiber <dbl>, sugar <dbl>, protein <dbl>, iron <dbl>,
#   vitamin_a <dbl>, vitamin_c <dbl>, wiki <chr>, description <chr>,
#   color <chr>
…
Notice how a relatively small set of commands can be put together in different ways to build a variety of plots. Already, we are making further progress towards building informative and beautiful graphics in R!

Selecting Columns

It is also possible to take a subset of the columns in a data set. To do this, we make use of the verb select. We pass it the names of the variables we want to keep in the output data set, in the (possibly new) order that we want the columns to be arranged in. Here, for example, is a new version of the foods data set containing only the food item name followed by the amount of Vitamin A and Vitamin C:

food %>%
  select(item, vitamin_a, vitamin_c)

# A tibble: 61 x 3
   item        vitamin_a vitamin_c
   <chr>           <dbl>     <dbl>
 1 Apple               1         8
 2 Asparagus          15         9
 3 Avocado             3        17
 4 Banana              1        15
 5 Chickpea            0         3
 6 String Bean        14        27
 7 Beef                0         0
 8 Bell Pepper        63       317
 9 Crab                0         5
10 Broccoli           12       149
#  with 51 more rows

We will not need to use the select verb as often as filter because for the most part having extra variables around does not effect data visualizations or data models. However, it can be useful to displaying results and building tables.

As we saw above, the Vitamin A and Vitamin C columns were cut-off in the original output but are not visible in the selected data set version. Removing and reordering unneeded columns are important applied operations.

Arranging Rows

The verb filter determined a subset of rows to keep from the original data set. The arrange verb, in contrast, keeps all of the original data but re-orders its rows.

Specifically, we give it one or more variable names and it sorts the data by the first variable from smallest to largest (or alphabetically for character variables). In the case of ties, the second variable is used if given. More variables can be given to further break additional ties. Here is an example where we order the data set first by food_group and then by calories:

food %>%
  arrange(food_group, calories)

# A tibble: 61 x 17
   item       food_group calories total_fat sat_fat cholesterol sodium
   <chr>      <chr>         <dbl>     <dbl>   <dbl>       <dbl>  <dbl>
 1 Milk       dairy            60       3.2   1.86           10     40
 2 Yogurt     dairy            99       1.1   0.742           5     53
 3 Sour Cream dairy           214      20.9  13.0            44     53
 4 Cheese     dairy           350      26.9  16.6            83    955
 5 Crab       fish             87       1     0.222          78    293
 6 Lobster    fish             97       0.5   0.106          71    700
 7 Haddock    fish            128       3.7   0.69           66    402
 8 Flounder   fish            133       4.2   0.867          56    417
 9 Shrimp     fish            144       2.3   0.446         206    613
10 Tuna       fish            153       3.9   0.811          53    366
#  with 51 more rows, and 10 more variables: carbs <dbl>,
#   fiber <dbl>, sugar <dbl>, protein <dbl>, iron <dbl>,
#   vitamin_a <dbl>, vitamin_c <dbl>, wiki <chr>, description <chr>,
#   color <chr>

In the new data set all of the dairy products come up first followed by the fish products. Within each group, the items are sorted from the lowest to highest number of calories.

The ordering can be reversed (i.e., from the highest to the lowest value) be wrapping a variable in the function desc(), such as this ordering from the most saturated fat to the least:

food %>%
  arrange(desc(sat_fat))

# A tibble: 61 x 17
   item       food_group calories total_fat sat_fat cholesterol sodium
   <chr>      <chr>         <dbl>     <dbl>   <dbl>       <dbl>  <dbl>
 1 Cheese     dairy           350      26.9   16.6           83    955
 2 Sour Cream dairy           214      20.9   13.0           44     53
 3 Lamb       meat            292      20.7    8.76          96    394
 4 Beef       meat            288      19.5    7.73          87    384
 5 Pork       meat            271      17      6.17          90    384
 6 Chicken    meat            237      13.4    3.76          87    404
 7 Catfish    fish            240      14.5    3.25          69    398
 8 Halibut    fish            239      17.7    3.10          59    103
 9 Duck       meat            132       5.9    2.32          77     74
10 Cod        fish            211      10.8    2.22          57    401
#  with 51 more rows, and 10 more variables: carbs <dbl>,
#   fiber <dbl>, sugar <dbl>, protein <dbl>, iron <dbl>,
#   vitamin_a <dbl>, vitamin_c <dbl>, wiki <chr>, description <chr>,
#   color <chr>
…
I find that using a white fill color and a black border is often a good-looking starting point. Also, you will notice that making the bars horizontal will make it easier to read the category names when there are a larger number of categories.

It is possible to group a data set by multiple variables. To do this, we can provide additional variables to the group_by function separated by commas. For example, we could group the food data set into food group and color, and summarize each combination of the two:

food %>%
  group_by(food_group, color) %>%
  summarize(sm_count(), sm_mean(calories))

# A tibble: 21 x 4
# Groups:   food_group [6]
   food_group color  count calories_mean
   <chr>      <chr>  <int>         <dbl>
 1 dairy      white      3         124. 
 2 dairy      yellow     1         350  
 3 fish       pink       2         158. 
 4 fish       red        3         112. 
 5 fish       white      9         187. 
 6 fruit      green      4          77.2
 7 fruit      orange     3          44.7
 8 fruit      pink       2          35.5
 9 fruit      purple     2          57.5
10 fruit      red        2          42  
#  with 11 more rows

Notice that now there is one row for each combination of the two groups. However, there is no row for combinations that do not exist. So, there is no row for pink dairy products nor for white fruit. Examples of several common uses for multiple groups are given in the exercises.

Mutate verb

The final core dplyr verb that we will look at is used to create a new variable in our data set based on other variables that are already present. This verb is called mutate, and works by giving it the name of the variable you want to create followed by the code that describes how to construct the variable in terms of the rest of the data.

As an example, consider computing the number of calories in an 200g portion of each food. All of the variables in the data set are currently given as 100g portions, so to compute this we need to multiply the calories variables by 2. To do this, we use the mutate verb to name and describe a new variable calories_200g.

food %>%
  mutate(calories_200g = calories * 2)

# A tibble: 61 x 18
   item       food_group calories total_fat sat_fat cholesterol sodium
   <chr>      <chr>         <dbl>     <dbl>   <dbl>       <dbl>  <dbl>
 1 Apple      fruit            52       0.1   0.028           0      1
 2 Asparagus  vegetable        20       0.1   0.046           0      2
 3 Avocado    fruit           160      14.6   2.13            0      7
 4 Banana     fruit            89       0.3   0.112           0      1
 5 Chickpea   grains          180       2.9   0.309           0    243
 6 String Be vegetable        31       0.1   0.026           0      6
 7 Beef       meat            288      19.5   7.73           87    384
 8 Bell Pepp vegetable        26       0     0.059           0      2
 9 Crab       fish             87       1     0.222          78    293
10 Broccoli   vegetable        34       0.3   0.039           0     33
#  with 51 more rows, and 11 more variables: carbs <dbl>,
#   fiber <dbl>, sugar <dbl>, protein <dbl>, iron <dbl>,
#   vitamin_a <dbl>, vitamin_c <dbl>, wiki <chr>, description <chr>,
#   color <chr>, calories_200g <dbl>

Notice that there is a new variable named calories_200g that has been added as the last column in the data set. Because it is added at the end of the data set, it gets hidden in the output shown above. Making use of select allows us to see the new values:

food %>%
  mutate(calories_200g = calories * 2) %>%
  select(item, food_group, calories, calories_200g)

# A tibble: 61 x 4
   item        food_group calories calories_200g
   <chr>       <chr>         <dbl>         <dbl>
 1 Apple       fruit            52           104
 2 Asparagus   vegetable        20            40
 3 Avocado     fruit           160           320
 4 Banana      fruit            89           178
 5 Chickpea    grains          180           360
 6 String Bean vegetable        31            62
 7 Beef        meat            288           576
 8 Bell Pepper vegetable        26            52
 9 Crab        fish             87           174
10 Broccoli    vegetable        34            68
#  with 51 more rows
…
Note that mutate can also be used to modify any existing column in the data set by using the name of an extant variable. In this case the position of the variable within the tables does not change.

The mutate verb itself has a relatively straightforward syntax. The main challenge is knowing how to apply and chain together the various transformations that are useful within an analysis. In the next few sections, we highlight several common types of operations that we will be useful in subsequent applications.

Conditional values

Many of the uses for the mutate verb involve assigning one value when a set of conditions is true and another if the conditions are false. For example, consider creating a new variable called sugar_level based on the relative amount of sugar in each food item. We might classify a food has having a high sugar level if has more than 10g of sugar per 100g serving, and a normal amount otherwise. In order to create this variable, we need the function if_else.

The if_else function has three parts: a TRUE/FALSE statement, the value to use when the statement is true, and the value to use when it is false. Here is an example to create our new variable:

food %>%
  mutate(sugar_level = if_else(sugar > 10, "high", "normal")) %>%
  select(item, food_group, sugar, sugar_level)

# A tibble: 61 x 4
   item        food_group sugar sugar_level
   <chr>       <chr>      <dbl> <chr>      
 1 Apple       fruit      10.4  high       
 2 Asparagus   vegetable   1.88 normal     
 3 Avocado     fruit       0.66 normal     
 4 Banana      fruit      12.2  high       
 5 Chickpea    grains      5.29 normal     
 6 String Bean vegetable   1.4  normal     
 7 Beef        meat        0    normal     
 8 Bell Pepper vegetable   4.2  normal     
 9 Crab        fish        0    normal     
10 Broccoli    vegetable   1.7  normal     
#  with 51 more rows

Looking at the first rows of data, we see that apples and bananas are classified as high sugar foods, whereas the other sugar levels are given the sugar level category of normal.

The if_else function can be used to produce any number of categories by using it multiple times. Lets modify our sugar level variable to now have three categories: high (over 10g), low (less than 1g), and normal (between 1g and 10g). There are several different ways to get to the same result, but I find the easiest is to start by assigning a default value and then changing the value of the new variable in sequence. For example, here some code that produces our new categories:

food %>%
  mutate(sugar_level = "default") %>%
  mutate(sugar_level = if_else(sugar < 1, "low", sugar_level)) %>%
  mutate(sugar_level = if_else(sugar > 10, "high", sugar_level)) %>%
  mutate(sugar_level = if_else(between(sugar, 1, 10), "normal", sugar_level)) %>%
  select(item, food_group, sugar, sugar_level)

# A tibble: 61 x 4
   item        food_group sugar sugar_level
   <chr>       <chr>      <dbl> <chr>      
 1 Apple       fruit      10.4  high       
 2 Asparagus   vegetable   1.88 normal     
 3 Avocado     fruit       0.66 low        
 4 Banana      fruit      12.2  high       
 5 Chickpea    grains      5.29 normal     
 6 String Bean vegetable   1.4  normal     
 7 Beef        meat        0    low        
 8 Bell Pepper vegetable   4.2  normal     
 9 Crab        fish        0    low        
10 Broccoli    vegetable   1.7  normal     
#  with 51 more rows
…
Other useful functions for manipulating categories include fct_relevel for manually putting one category first and fct_lump_n for combining together the smallest categories into a collective Other category.

Mutate summaries

All of summary functions that were introduced in the previous notebook can also be applied within the mutate version. Instead of reducing the data to a single summary row, summarizing within the mutate verb duplicates the summary statistic in each row of the data set. Here is an example of including the average number of calories across all rows of the data set:

food %>%
  mutate(sm_mean(calories))

# A tibble: 61 x 18
   item       food_group calories total_fat sat_fat cholesterol sodium
   <chr>      <chr>         <dbl>     <dbl>   <dbl>       <dbl>  <dbl>
 1 Apple      fruit            52       0.1   0.028           0      1
 2 Asparagus  vegetable        20       0.1   0.046           0      2
 3 Avocado    fruit           160      14.6   2.13            0      7
 4 Banana     fruit            89       0.3   0.112           0      1
 5 Chickpea   grains          180       2.9   0.309           0    243
 6 String Be vegetable        31       0.1   0.026           0      6
 7 Beef       meat            288      19.5   7.73           87    384
 8 Bell Pepp vegetable        26       0     0.059           0      2
 9 Crab       fish             87       1     0.222          78    293
10 Broccoli   vegetable        34       0.3   0.039           0     33
#  with 51 more rows, and 11 more variables: carbs <dbl>,
#   fiber <dbl>, sugar <dbl>, protein <dbl>, iron <dbl>,
#   vitamin_a <dbl>, vitamin_c <dbl>, wiki <chr>, description <chr>,
#   color <chr>, calories_mean <dbl>

As with any call to mutate, all of the original variables are kept in the output and the new variable is added at the end. Using select we can verify that the average calories has in fact been added to each row of the table.

food %>%
  mutate(sm_mean(calories)) %>%
  select(item, food_group, calories, calories_mean)

# A tibble: 61 x 4
   item        food_group calories calories_mean
   <chr>       <chr>         <dbl>         <dbl>
 1 Apple       fruit            52          114.
 2 Asparagus   vegetable        20          114.
 3 Avocado     fruit           160          114.
 4 Banana      fruit            89          114.
 5 Chickpea    grains          180          114.
 6 String Bean vegetable        31          114.
 7 Beef        meat            288          114.
 8 Bell Pepper vegetable        26          114.
 9 Crab        fish             87          114.
10 Broccoli    vegetable        34          114.
#  with 51 more rows

The power of mutate summaries becomes particularly clear when grouping the data. If we group the data set by one or more variables and apply a summary function within a mutation, the repeated summaries will be done within each group. Here is an example of adding the average calories of each food group to the data set:

food %>%
  group_by(food_group) %>%
  mutate(sm_mean(calories)) %>%
  select(item, food_group, calories, calories_mean)

# A tibble: 61 x 4
# Groups:   food_group [6]
   item        food_group calories calories_mean
   <chr>       <chr>         <dbl>         <dbl>
 1 Apple       fruit            52          54.9
 2 Asparagus   vegetable        20          37.4
 3 Avocado     fruit           160          54.9
 4 Banana      fruit            89          54.9
 5 Chickpea    grains          180         196. 
 6 String Bean vegetable        31          37.4
 7 Beef        meat            288         234. 
 8 Bell Pepper vegetable        26          37.4
 9 Crab        fish             87         167. 
10 Broccoli    vegetable        34          37.4
#  with 51 more rows
…
