Econ 712: Everything in R is an Object
…
This enables some very powerful workflows with data and empirical modeling. As an example, suppose we want to break a large data set into multiple sub-data sets by split according to the values of a group variable, and run a regression among the remaining variables for each group separately. How can we examine the pattern of values of the regression coefficient among the groups.

The key function to enable list columns that are populated with tibbles is nest(). In particular as Hadley explains, Pass nest() the names of the columns to put into each individual tibble. nest() will create one row for each unique value of the remaining variables. (determine citation)

Consider the example from the tidymodels tutorials:

library(tidymodels)

data(Orange)

Orange <- as_tibble(Orange)
Orange

# A tibble: 35 x 3
   Tree    age circumference
   <ord> <dbl>         <dbl>
 1 1       118            30
 2 1       484            58
 3 1       664            87
 4 1      1004           115
 5 1      1231           120
 6 1      1372           142
 7 1      1582           145
 8 2       118            33
 9 2       484            69
10 2       664           111
#  with 25 more rows
…
# A tibble: 1 x 13
  brand bodystyle  year month  time muninumber market_ids  muni
  <int>     <int> <int> <int> <int>      <int>      <int> <int>
1    44         9     8    12    96        416       3251   416
#  with 5 more variables: transmission <int>, county <int>,
#   model <int>, drivetrain <int>, fueltype <int>

How many years of data for each municpality

carData %>%
group_by(muninumber, year) %>% count()

# A tibble: 3,251 x 3
# Groups:   muninumber, year [3,251]
   muninumber year      n
   <fct>      <fct> <int>
 1 101        2010     82
 2 101        2011     85
 3 101        2012     96
 4 101        2013     94
 5 101        2014     77
 6 101        2015     81
 7 101        2016     87
 8 101        2017     81
 9 104        2010    111
10 104        2011    111
#  with 3,241 more rows
…
