Estimating demand for retail stores
…
Including Plots

library(dplyr)

# number of stores in one business district.
summary_data <- estimated_sales_2020 %>%
  group_by(year,quarter,district_code) %>% 
  summarise(sum = sum(number_of_stores),
            n = n())

summary_data

# A tibble: 4,455 x 5
# Groups:   year, quarter [3]
    year quarter district_code   sum     n
   <int>   <int>         <int> <int> <int>
 1  2020       1       1000001   117    18
 2  2020       1       1000002    60    13
 3  2020       1       1000003   188    24
 4  2020       1       1000004    77    16
 5  2020       1       1000005    40    11
 6  2020       1       1000006    24    10
 7  2020       1       1000007   163    18
 8  2020       1       1000008    69     9
 9  2020       1       1000009   106    13
10  2020       1       1000010   111    22
# ... with 4,445 more rows
…
As we can see, the business district usually consists of 0~100 stores. As we have seen in the picture, the area is quite small.

# number of stores in one business district, by category
summary_data2 <- estimated_sales_2020 %>%
  group_by(year,quarter,district_code,category_code) %>% 
  summarise(sum = sum(number_of_stores),
            n = n())
summary_data2

# A tibble: 99,554 x 6
# Groups:   year, quarter, district_code [4,455]
    year quarter district_code category_code   sum     n
   <int>   <int>         <int> <fct>         <int> <int>
 1  2020       1       1000001 CS100001         19     1
 2  2020       1       1000001 CS100002          1     1
 3  2020       1       1000001 CS100003          3     1
 4  2020       1       1000001 CS100004          3     1
 5  2020       1       1000001 CS100005          4     1
 6  2020       1       1000001 CS100006          2     1
 7  2020       1       1000001 CS100008          8     1
 8  2020       1       1000001 CS100010         23     1
 9  2020       1       1000001 CS200001          3     1
10  2020       1       1000001 CS200008          1     1
# ... with 99,544 more rows
…
